<svg width="487" height="679" viewBox="0 0 487 679" fill="none" xmlns="http://www.w3.org/2000/svg">
<g style="mix-blend-mode:multiply" opacity="0.3">
<path d="M-913.44 256.132L-913.439 256.131C-883.923 238.627 -853.252 223.2 -821.643 209.959L-821.642 209.958C-758.404 183.379 -691.782 165.156 -624.108 154.377C-590.25 149.037 -556.141 145.529 -521.927 143.87L-521.927 143.87L-509.106 143.243C-509.104 143.243 -509.103 143.243 -509.102 143.243C-506.29 143.123 -503.474 143.068 -500.646 143.014C-499.192 142.986 -497.734 142.957 -496.273 142.92C-494.879 142.889 -493.482 142.855 -492.083 142.822C-484.943 142.649 -477.751 142.476 -470.615 142.615L-470.604 142.615L-470.594 142.615C-453.461 142.588 -436.373 143.216 -419.269 144.059C-385.083 145.819 -351.014 149.323 -317.194 154.558L-317.193 154.558C-300.288 157.156 -283.384 160.068 -266.709 163.548L-266.703 163.549C-265.29 163.836 -263.879 164.117 -262.471 164.399C-259.685 164.955 -256.909 165.509 -254.142 166.098C-254.14 166.098 -254.138 166.099 -254.135 166.099L-241.631 168.946L-241.63 168.947L-229.109 171.784L-229.106 171.784C-226.345 172.4 -223.61 173.098 -220.857 173.8C-219.473 174.153 -218.083 174.507 -216.684 174.853C-216.682 174.853 -216.681 174.854 -216.68 174.854L-204.249 178.024L-204.242 178.026L-198.035 179.559L-198.018 179.563L-191.885 181.319L-179.552 184.848C-179.551 184.849 -179.551 184.849 -179.551 184.849C-178.468 185.161 -177.386 185.467 -176.307 185.773C-173.277 186.631 -170.267 187.483 -167.286 188.459L-167.286 188.459L-167.275 188.462C-164.397 189.369 -161.519 190.264 -158.644 191.159C-153.353 192.805 -148.071 194.449 -142.804 196.155C-142.802 196.156 -142.8 196.156 -142.797 196.157L-118.517 204.398C-118.515 204.399 -118.513 204.4 -118.51 204.401C-86.3039 215.864 -54.6517 228.951 -23.6701 243.45C38.3341 272.477 97.1962 307.851 151.993 349.018C206.607 390.259 256.898 437.416 300.441 490.228C300.443 490.229 300.444 490.231 300.445 490.233L308.463 500.251L312.476 505.266L313.257 504.641L312.477 505.266L314.461 507.743L314.478 507.765L316.403 510.312L324.138 520.554L324.936 519.951L324.138 520.554L328.004 525.665C328.005 525.667 328.005 525.668 328.006 525.669C328.853 526.822 329.673 527.965 330.497 529.114C330.909 529.688 331.321 530.263 331.738 530.841C333.245 533.003 334.764 535.136 336.28 537.265C339.713 542.087 343.126 546.88 346.326 551.898L346.331 551.906L346.336 551.913L353.424 562.606L353.432 562.618L353.439 562.629C354.364 563.945 355.22 565.351 356.094 566.786C356.341 567.19 356.588 567.597 356.839 568.004L357.691 567.48L356.839 568.004L360.206 573.471L360.209 573.475C378.1 602.174 393.764 632.232 407.062 663.38L388.954 672.683C372.288 644.684 354.037 617.68 334.29 591.805L333.495 592.411L334.29 591.804L330.568 586.935L330.565 586.932L330.563 586.928C329.337 585.31 328.095 583.669 326.766 582.077C326.765 582.074 326.763 582.072 326.761 582.07L319.1 572.55C319.098 572.547 319.096 572.545 319.094 572.542C315.631 568.092 311.949 563.795 308.288 559.521C306.637 557.594 304.99 555.671 303.369 553.742L303.364 553.736C302.93 553.228 302.496 552.712 302.059 552.195C301.179 551.153 300.291 550.101 299.391 549.078L299.385 549.071L295.303 544.509L295.302 544.508L287.165 535.391L287.164 535.39L285.137 533.113L285.126 533.101L285.115 533.089L283.016 530.881L283.014 530.878L278.821 526.433L278.82 526.432L270.426 517.549L270.417 517.54C225.105 470.787 175.19 428.808 121.437 392.247C67.829 355.737 11.0255 324.222 -48.2749 298.088C-77.8452 284.907 -108.037 273.166 -138.639 262.648L-138.65 262.644L-161.676 255.023L-161.683 255.021L-161.69 255.018C-165.723 253.747 -169.806 252.501 -173.883 251.256C-177.567 250.131 -181.246 249.007 -184.877 247.869L-184.887 247.866L-184.897 247.863C-200.436 243.356 -216.046 239.06 -231.747 235.125L-231.75 235.124C-233.059 234.8 -234.365 234.462 -235.671 234.124C-238.287 233.446 -240.902 232.769 -243.546 232.21C-243.549 232.21 -243.552 232.209 -243.555 232.209L-255.358 229.506L-255.359 229.506L-267.175 226.786L-267.188 226.783L-267.2 226.781L-279.09 224.356L-279.094 224.355C-281.021 223.969 -282.952 223.574 -284.885 223.178C-290.867 221.953 -296.878 220.723 -302.919 219.737C-302.921 219.736 -302.924 219.736 -302.927 219.736L-314.84 217.588L-320.81 216.511C-320.811 216.511 -320.811 216.511 -320.811 216.511C-322.083 216.279 -323.383 216.082 -324.664 215.889C-325.386 215.78 -326.103 215.671 -326.805 215.558L-326.815 215.556C-329.701 215.121 -332.589 214.67 -335.479 214.219C-340.577 213.424 -345.682 212.627 -350.792 211.91L-350.803 211.908L-374.848 208.812L-374.861 208.811L-374.873 208.81L-398.965 206.311C-398.968 206.311 -398.97 206.311 -398.973 206.31C-400.998 206.068 -403.02 205.883 -405.038 205.742C-405.039 205.742 -405.041 205.742 -405.042 205.742L-411.08 205.258L-411.08 205.258L-423.123 204.303L-423.131 204.302C-439.252 203.165 -455.418 202.303 -471.6 201.95L-471.604 201.95C-473.15 201.922 -474.722 201.866 -476.304 201.809C-478.773 201.72 -481.267 201.631 -483.724 201.647C-483.727 201.647 -483.731 201.647 -483.734 201.647L-495.83 201.498L-495.838 201.498C-497.19 201.493 -498.55 201.479 -499.913 201.465C-502.596 201.438 -505.295 201.41 -507.98 201.446L-507.986 201.446L-520.097 201.682L-520.1 201.682C-552.445 202.386 -584.783 204.403 -616.944 208.201C-681.444 215.49 -745.028 229.645 -806.632 250.428L-806.632 250.429C-837.473 260.862 -867.677 273.137 -897.085 287.188L-897.086 287.189C-926.326 301.213 -954.688 317.038 -982.012 334.573L-996.536 314.605C-970.413 292.924 -942.627 273.37 -913.44 256.132Z" stroke="url(#paint0_linear)" stroke-width="2"/>
</g>
<defs>
<linearGradient id="paint0_linear" x1="-900.554" y1="356.108" x2="294.818" y2="845.364" gradientUnits="userSpaceOnUse">
<stop stop-color="#4E64E6"/>
<stop offset="1" stop-color="#4E64E6" stop-opacity="0"/>
</linearGradient>
</defs>
</svg>
